{"89e5767ba8138970cdfc4db2ab39b0cd":{"statistic":{"failed":1,"broken":0,"skipped":0,"passed":0,"unknown":0,"total":1},"items":[{"uid":"2fe9bd02be3e81de","reportUrl":"https://anilmadala.github.io/playwrightAPIAutomationSuite/1/#testresult/2fe9bd02be3e81de","status":"failed","statusDetails":"expect(received).toBe(expected) // Object.is equality\n\nExpected: 201\nReceived: 401","time":{"start":1756137380522,"stop":1756137381018,"duration":496}}]},"2e30c2b97f827e3b6f8304021394d896":{"statistic":{"failed":1,"broken":0,"skipped":0,"passed":0,"unknown":0,"total":1},"items":[{"uid":"77209b7d31d74d1d","reportUrl":"https://anilmadala.github.io/playwrightAPIAutomationSuite/1/#testresult/77209b7d31d74d1d","status":"failed","statusDetails":"expect(received).toMatchJSON(expected)\n\n- Expected  - 2\n+ Received  + 2\n\n@@ -5,9 +5,9 @@\n      \"first_name\": \"Janet\",\n      \"id\": 2,\n      \"last_name\": \"Weaver\",\n    },\n    \"support\": Object {\n-     \"text\": \"To keep ReqRes free, contributions towards server costs are appreciated!\",\n-     \"url\": \"https://reqres.in/#support-heading\",\n+     \"text\": \"Tired of writing endless social media content? Let Content Caddy generate it for you.\",\n+     \"url\": \"https://contentcaddy.io?utm_source=reqres&utm_medium=json&utm_campaign=referral\",\n    },\n  }","time":{"start":1756137380510,"stop":1756137380986,"duration":476}}]},"e5ffb2ff4d488404ddcc27807c81b596":{"statistic":{"failed":0,"broken":0,"skipped":1,"passed":0,"unknown":0,"total":1},"items":[{"uid":"b30e9de27ee7732f","reportUrl":"https://anilmadala.github.io/playwrightAPIAutomationSuite/1/#testresult/b30e9de27ee7732f","status":"skipped","time":{"start":1756137380986,"stop":1756137380987,"duration":1}}]},"af9f030e2604450caa5ac49c1ac2c4aa":{"statistic":{"failed":1,"broken":0,"skipped":0,"passed":0,"unknown":0,"total":1},"items":[{"uid":"ba20e7365ec668a4","reportUrl":"https://anilmadala.github.io/playwrightAPIAutomationSuite/1/#testresult/ba20e7365ec668a4","status":"failed","statusDetails":"expect(received).toMatchJSON(expected)\n\n- Expected  - 2\n+ Received  + 2\n\n@@ -44,11 +44,11 @@\n      },\n    ],\n    \"page\": 2,\n    \"per_page\": 6,\n    \"support\": Object {\n-     \"text\": \"To keep ReqRes free, contributions towards server costs are appreciated!\",\n-     \"url\": \"https://reqres.in/#support-heading\",\n+     \"text\": \"Tired of writing endless social media content? Let Content Caddy generate it for you.\",\n+     \"url\": \"https://contentcaddy.io?utm_source=reqres&utm_medium=json&utm_campaign=referral\",\n    },\n    \"total\": 12,\n    \"total_pages\": 2,\n  }","time":{"start":1756137379567,"stop":1756137380054,"duration":487}}]},"f2d38142cda2ce442ce2e644ac18bd6b":{"statistic":{"failed":1,"broken":0,"skipped":0,"passed":0,"unknown":0,"total":1},"items":[{"uid":"894bd0dcc9f4bac4","reportUrl":"https://anilmadala.github.io/playwrightAPIAutomationSuite/1/#testresult/894bd0dcc9f4bac4","status":"failed","statusDetails":"expect(received).toBe(expected) // Object.is equality\n\nExpected: 201\nReceived: 401","time":{"start":1756137379552,"stop":1756137380073,"duration":521}}]}}