{"uid":"4b4757e66a1912dae1a509f688f20b0f","children":[{"name":"Product defects","children":[{"name":"expect(received).toBe(expected) // Object.is equality\n\nExpected: 201\nReceived: 401","children":[{"name":"create user","uid":"894bd0dcc9f4bac4","parentUid":"eb2a5c718314a0d61c14afeeca029336","status":"failed","time":{"start":1756137379552,"stop":1756137380073,"duration":521},"flaky":false,"newFailed":false,"newPassed":false,"newBroken":false,"retriesCount":2,"retriesStatusChange":true,"parameters":[],"tags":[]},{"name":"create user and delete User","uid":"2fe9bd02be3e81de","parentUid":"eb2a5c718314a0d61c14afeeca029336","status":"failed","time":{"start":1756137380522,"stop":1756137381018,"duration":496},"flaky":false,"newFailed":false,"newPassed":false,"newBroken":false,"retriesCount":2,"retriesStatusChange":true,"parameters":[],"tags":[]}],"uid":"eb2a5c718314a0d61c14afeeca029336"},{"name":"expect(received).toMatchJSON(expected)\n\n- Expected  - 2\n+ Received  + 2\n\n@@ -44,11 +44,11 @@\n      },\n    ],\n    \"page\": 2,\n    \"per_page\": 6,\n    \"support\": Object {\n-     \"text\": \"To keep ReqRes free, contributions towards server costs are appreciated!\",\n-     \"url\": \"https://reqres.in/#support-heading\",\n+     \"text\": \"Tired of writing endless social media content? Let Content Caddy generate it for you.\",\n+     \"url\": \"https://contentcaddy.io?utm_source=reqres&utm_medium=json&utm_campaign=referral\",\n    },\n    \"total\": 12,\n    \"total_pages\": 2,\n  }","children":[{"name":"fetch user list","uid":"ba20e7365ec668a4","parentUid":"6dec11d0875e7ed53dee0a5de4707149","status":"failed","time":{"start":1756137379567,"stop":1756137380054,"duration":487},"flaky":false,"newFailed":false,"newPassed":false,"newBroken":false,"retriesCount":2,"retriesStatusChange":true,"parameters":[],"tags":[]}],"uid":"6dec11d0875e7ed53dee0a5de4707149"},{"name":"expect(received).toMatchJSON(expected)\n\n- Expected  - 2\n+ Received  + 2\n\n@@ -5,9 +5,9 @@\n      \"first_name\": \"Janet\",\n      \"id\": 2,\n      \"last_name\": \"Weaver\",\n    },\n    \"support\": Object {\n-     \"text\": \"To keep ReqRes free, contributions towards server costs are appreciated!\",\n-     \"url\": \"https://reqres.in/#support-heading\",\n+     \"text\": \"Tired of writing endless social media content? Let Content Caddy generate it for you.\",\n+     \"url\": \"https://contentcaddy.io?utm_source=reqres&utm_medium=json&utm_campaign=referral\",\n    },\n  }","children":[{"name":"fetch a single user","uid":"77209b7d31d74d1d","parentUid":"ee7e88561d8980e5350406be3ed1b1db","status":"failed","time":{"start":1756137380510,"stop":1756137380986,"duration":476},"flaky":false,"newFailed":false,"newPassed":false,"newBroken":false,"retriesCount":2,"retriesStatusChange":true,"parameters":[],"tags":[]}],"uid":"ee7e88561d8980e5350406be3ed1b1db"}],"uid":"8fb3a91ba5aaf9de24cc8a92edc82b5d"}],"name":"categories"}