{"89e5767ba8138970cdfc4db2ab39b0cd":{"statistic":{"failed":3,"broken":0,"skipped":0,"passed":0,"unknown":0,"total":3},"items":[{"uid":"b791cb909755538e","reportUrl":"https://anilmadala.github.io/playwrightAPIAutomationSuite/3/#testresult/b791cb909755538e","status":"failed","statusDetails":"expect(received).toBe(expected) // Object.is equality\n\nExpected: 201\nReceived: 403","time":{"start":1773210016016,"stop":1773210016101,"duration":85}},{"uid":"a6b883e736da130f","reportUrl":"https://anilmadala.github.io/playwrightAPIAutomationSuite/2/#testresult/a6b883e736da130f","status":"failed","statusDetails":"expect(received).toBe(expected) // Object.is equality\n\nExpected: 201\nReceived: 403","time":{"start":1773209786406,"stop":1773209786517,"duration":111}},{"uid":"2fe9bd02be3e81de","reportUrl":"https://anilmadala.github.io/playwrightAPIAutomationSuite/1/#testresult/2fe9bd02be3e81de","status":"failed","statusDetails":"expect(received).toBe(expected) // Object.is equality\n\nExpected: 201\nReceived: 401","time":{"start":1756137380522,"stop":1756137381018,"duration":496}}]},"e5ffb2ff4d488404ddcc27807c81b596":{"statistic":{"failed":0,"broken":0,"skipped":3,"passed":0,"unknown":0,"total":3},"items":[{"uid":"e1076ea59a32b903","reportUrl":"https://anilmadala.github.io/playwrightAPIAutomationSuite/3/#testresult/e1076ea59a32b903","status":"skipped","time":{"start":1773210016093,"stop":1773210016094,"duration":1}},{"uid":"470bd58b958cf990","reportUrl":"https://anilmadala.github.io/playwrightAPIAutomationSuite/2/#testresult/470bd58b958cf990","status":"skipped","time":{"start":1773209786518,"stop":1773209786519,"duration":1}},{"uid":"b30e9de27ee7732f","reportUrl":"https://anilmadala.github.io/playwrightAPIAutomationSuite/1/#testresult/b30e9de27ee7732f","status":"skipped","time":{"start":1756137380986,"stop":1756137380987,"duration":1}}]},"af9f030e2604450caa5ac49c1ac2c4aa":{"statistic":{"failed":3,"broken":0,"skipped":0,"passed":0,"unknown":0,"total":3},"items":[{"uid":"22f15c815fb2dc7f","reportUrl":"https://anilmadala.github.io/playwrightAPIAutomationSuite/3/#testresult/22f15c815fb2dc7f","status":"failed","statusDetails":"expect(received).toBeTruthy()\n\nReceived: false","time":{"start":1773210015438,"stop":1773210015551,"duration":113}},{"uid":"31e6693666890f9","reportUrl":"https://anilmadala.github.io/playwrightAPIAutomationSuite/2/#testresult/31e6693666890f9","status":"failed","statusDetails":"expect(received).toBeTruthy()\n\nReceived: false","time":{"start":1773209785797,"stop":1773209785944,"duration":147}},{"uid":"ba20e7365ec668a4","reportUrl":"https://anilmadala.github.io/playwrightAPIAutomationSuite/1/#testresult/ba20e7365ec668a4","status":"failed","statusDetails":"expect(received).toMatchJSON(expected)\n\n- Expected  - 2\n+ Received  + 2\n\n@@ -44,11 +44,11 @@\n      },\n    ],\n    \"page\": 2,\n    \"per_page\": 6,\n    \"support\": Object {\n-     \"text\": \"To keep ReqRes free, contributions towards server costs are appreciated!\",\n-     \"url\": \"https://reqres.in/#support-heading\",\n+     \"text\": \"Tired of writing endless social media content? Let Content Caddy generate it for you.\",\n+     \"url\": \"https://contentcaddy.io?utm_source=reqres&utm_medium=json&utm_campaign=referral\",\n    },\n    \"total\": 12,\n    \"total_pages\": 2,\n  }","time":{"start":1756137379567,"stop":1756137380054,"duration":487}}]},"f2d38142cda2ce442ce2e644ac18bd6b":{"statistic":{"failed":3,"broken":0,"skipped":0,"passed":0,"unknown":0,"total":3},"items":[{"uid":"5c101041f41f22c1","reportUrl":"https://anilmadala.github.io/playwrightAPIAutomationSuite/3/#testresult/5c101041f41f22c1","status":"failed","statusDetails":"expect(received).toBe(expected) // Object.is equality\n\nExpected: 201\nReceived: 403","time":{"start":1773210015445,"stop":1773210015553,"duration":108}},{"uid":"35181c1140610690","reportUrl":"https://anilmadala.github.io/playwrightAPIAutomationSuite/2/#testresult/35181c1140610690","status":"failed","statusDetails":"expect(received).toBe(expected) // Object.is equality\n\nExpected: 201\nReceived: 403","time":{"start":1773209785801,"stop":1773209785939,"duration":138}},{"uid":"894bd0dcc9f4bac4","reportUrl":"https://anilmadala.github.io/playwrightAPIAutomationSuite/1/#testresult/894bd0dcc9f4bac4","status":"failed","statusDetails":"expect(received).toBe(expected) // Object.is equality\n\nExpected: 201\nReceived: 401","time":{"start":1756137379552,"stop":1756137380073,"duration":521}}]},"2e30c2b97f827e3b6f8304021394d896":{"statistic":{"failed":3,"broken":0,"skipped":0,"passed":0,"unknown":0,"total":3},"items":[{"uid":"2404d74b6050f4eb","reportUrl":"https://anilmadala.github.io/playwrightAPIAutomationSuite/3/#testresult/2404d74b6050f4eb","status":"failed","statusDetails":"expect(received).toBeTruthy()\n\nReceived: false","time":{"start":1773210016008,"stop":1773210016092,"duration":84}},{"uid":"3d7b763572013c05","reportUrl":"https://anilmadala.github.io/playwrightAPIAutomationSuite/2/#testresult/3d7b763572013c05","status":"failed","statusDetails":"expect(received).toBeTruthy()\n\nReceived: false","time":{"start":1773209786408,"stop":1773209786530,"duration":122}},{"uid":"77209b7d31d74d1d","reportUrl":"https://anilmadala.github.io/playwrightAPIAutomationSuite/1/#testresult/77209b7d31d74d1d","status":"failed","statusDetails":"expect(received).toMatchJSON(expected)\n\n- Expected  - 2\n+ Received  + 2\n\n@@ -5,9 +5,9 @@\n      \"first_name\": \"Janet\",\n      \"id\": 2,\n      \"last_name\": \"Weaver\",\n    },\n    \"support\": Object {\n-     \"text\": \"To keep ReqRes free, contributions towards server costs are appreciated!\",\n-     \"url\": \"https://reqres.in/#support-heading\",\n+     \"text\": \"Tired of writing endless social media content? Let Content Caddy generate it for you.\",\n+     \"url\": \"https://contentcaddy.io?utm_source=reqres&utm_medium=json&utm_campaign=referral\",\n    },\n  }","time":{"start":1756137380510,"stop":1756137380986,"duration":476}}]}}