{"uid":"ba20e7365ec668a4","name":"fetch user list","fullName":"getUserList.spec.js#user endpoints fetch user list","historyId":"af9f030e2604450caa5ac49c1ac2c4aa","time":{"start":1756137379567,"stop":1756137380054,"duration":487},"status":"failed","statusMessage":"expect(received).toMatchJSON(expected)\n\n- Expected  - 2\n+ Received  + 2\n\n@@ -44,11 +44,11 @@\n      },\n    ],\n    \"page\": 2,\n    \"per_page\": 6,\n    \"support\": Object {\n-     \"text\": \"To keep ReqRes free, contributions towards server costs are appreciated!\",\n-     \"url\": \"https://reqres.in/#support-heading\",\n+     \"text\": \"Tired of writing endless social media content? Let Content Caddy generate it for you.\",\n+     \"url\": \"https://contentcaddy.io?utm_source=reqres&utm_medium=json&utm_campaign=referral\",\n    },\n    \"total\": 12,\n    \"total_pages\": 2,\n  }","statusTrace":"\n    at /home/runner/work/playwrightAPIAutomationSuite/playwrightAPIAutomationSuite/tests/getUserList.spec.js:19:28","flaky":false,"newFailed":false,"newBroken":false,"newPassed":false,"retriesCount":2,"retriesStatusChange":true,"beforeStages":[],"testStage":{"status":"failed","statusMessage":"expect(received).toMatchJSON(expected)\n\n- Expected  - 2\n+ Received  + 2\n\n@@ -44,11 +44,11 @@\n      },\n    ],\n    \"page\": 2,\n    \"per_page\": 6,\n    \"support\": Object {\n-     \"text\": \"To keep ReqRes free, contributions towards server costs are appreciated!\",\n-     \"url\": \"https://reqres.in/#support-heading\",\n+     \"text\": \"Tired of writing endless social media content? Let Content Caddy generate it for you.\",\n+     \"url\": \"https://contentcaddy.io?utm_source=reqres&utm_medium=json&utm_campaign=referral\",\n    },\n    \"total\": 12,\n    \"total_pages\": 2,\n  }","statusTrace":"\n    at /home/runner/work/playwrightAPIAutomationSuite/playwrightAPIAutomationSuite/tests/getUserList.spec.js:19:28","steps":[{"name":"Before Hooks","time":{"start":1756137379568,"stop":1756137379579,"duration":11},"status":"passed","steps":[],"attachments":[],"parameters":[],"stepsCount":0,"shouldDisplayMessage":false,"attachmentsCount":0,"hasContent":false,"attachmentStep":false},{"name":"apiRequestContext.get(https://reqres.in/api/users?page=2)","time":{"start":1756137379581,"stop":1756137380032,"duration":451},"status":"passed","steps":[],"attachments":[],"parameters":[],"stepsCount":0,"shouldDisplayMessage":false,"attachmentsCount":0,"hasContent":false,"attachmentStep":false},{"name":"expect.toBeTruthy","time":{"start":1756137380033,"stop":1756137380034,"duration":1},"status":"passed","steps":[],"attachments":[],"parameters":[],"stepsCount":0,"shouldDisplayMessage":false,"attachmentsCount":0,"hasContent":false,"attachmentStep":false},{"name":"expect.toBe","time":{"start":1756137380035,"stop":1756137380035,"duration":0},"status":"passed","steps":[],"attachments":[],"parameters":[],"stepsCount":0,"shouldDisplayMessage":false,"attachmentsCount":0,"hasContent":false,"attachmentStep":false},{"name":"expect.toMatchJSON","time":{"start":1756137380035,"stop":1756137380037,"duration":2},"status":"passed","steps":[],"attachments":[],"parameters":[],"stepsCount":0,"shouldDisplayMessage":false,"attachmentsCount":0,"hasContent":false,"attachmentStep":false},{"name":"apiResponse.json","time":{"start":1756137380037,"stop":1756137380038,"duration":1},"status":"passed","steps":[],"attachments":[],"parameters":[],"stepsCount":0,"shouldDisplayMessage":false,"attachmentsCount":0,"hasContent":false,"attachmentStep":false},{"name":"After Hooks","time":{"start":1756137380044,"stop":1756137380051,"duration":7},"status":"passed","steps":[{"name":"apiRequestContext.dispose","time":{"start":1756137380046,"stop":1756137380047,"duration":1},"status":"passed","steps":[],"attachments":[],"parameters":[],"stepsCount":0,"shouldDisplayMessage":false,"attachmentsCount":0,"hasContent":false,"attachmentStep":false}],"attachments":[],"parameters":[],"stepsCount":1,"shouldDisplayMessage":false,"attachmentsCount":0,"hasContent":true,"attachmentStep":false}],"attachments":[],"parameters":[],"stepsCount":8,"shouldDisplayMessage":true,"attachmentsCount":0,"hasContent":true,"attachmentStep":false},"afterStages":[],"labels":[{"name":"language","value":"JavaScript"},{"name":"framework","value":"Playwright"},{"name":"subSuite","value":"user endpoints"},{"name":"host","value":"pkrvmqc4gcfdwos"},{"name":"thread","value":"pkrvmqc4gcfdwos-2578-playwright-worker-0"},{"name":"resultFormat","value":"allure2"}],"parameters":[],"links":[],"hidden":false,"retry":false,"extra":{"severity":"normal","retries":[{"uid":"dab4d5f18b09a272","status":"passed","time":{"start":1683305691564,"stop":1683305692003,"duration":439}},{"uid":"d49596ab3d745982","status":"passed","time":{"start":1683305438353,"stop":1683305438754,"duration":401}}],"categories":[{"name":"Product defects","matchedStatuses":[],"flaky":false}],"tags":[]},"source":"ba20e7365ec668a4.json","parameterValues":[]}