{"uid":"31e6693666890f9","name":"fetch user list","fullName":"getUserList.spec.js#user endpoints fetch user list","historyId":"af9f030e2604450caa5ac49c1ac2c4aa","time":{"start":1773209785797,"stop":1773209785944,"duration":147},"status":"failed","statusMessage":"expect(received).toBeTruthy()\n\nReceived: false","statusTrace":"\n    at /home/runner/work/playwrightAPIAutomationSuite/playwrightAPIAutomationSuite/tests/getUserList.spec.js:11:28","flaky":false,"newFailed":false,"newBroken":false,"newPassed":false,"retriesCount":2,"retriesStatusChange":true,"beforeStages":[],"testStage":{"status":"failed","statusMessage":"expect(received).toBeTruthy()\n\nReceived: false","statusTrace":"\n    at /home/runner/work/playwrightAPIAutomationSuite/playwrightAPIAutomationSuite/tests/getUserList.spec.js:11:28","steps":[{"name":"Before Hooks","time":{"start":1773209785800,"stop":1773209785811,"duration":11},"status":"passed","steps":[],"attachments":[],"parameters":[],"stepsCount":0,"shouldDisplayMessage":false,"attachmentsCount":0,"hasContent":false,"attachmentStep":false},{"name":"apiRequestContext.get(https://reqres.in/api/users?page=2)","time":{"start":1773209785812,"stop":1773209785933,"duration":121},"status":"passed","steps":[],"attachments":[],"parameters":[],"stepsCount":0,"shouldDisplayMessage":false,"attachmentsCount":0,"hasContent":false,"attachmentStep":false},{"name":"expect.toBeTruthy","time":{"start":1773209785935,"stop":1773209785937,"duration":2},"status":"failed","steps":[],"attachments":[],"parameters":[],"stepsCount":0,"shouldDisplayMessage":false,"attachmentsCount":0,"hasContent":false,"attachmentStep":false},{"name":"After Hooks","time":{"start":1773209785937,"stop":1773209785943,"duration":6},"status":"passed","steps":[{"name":"apiRequestContext.dispose","time":{"start":1773209785940,"stop":1773209785940,"duration":0},"status":"passed","steps":[],"attachments":[],"parameters":[],"stepsCount":0,"shouldDisplayMessage":false,"attachmentsCount":0,"hasContent":false,"attachmentStep":false}],"attachments":[],"parameters":[],"stepsCount":1,"shouldDisplayMessage":false,"attachmentsCount":0,"hasContent":true,"attachmentStep":false}],"attachments":[],"parameters":[],"stepsCount":5,"shouldDisplayMessage":true,"attachmentsCount":0,"hasContent":true,"attachmentStep":false},"afterStages":[],"labels":[{"name":"language","value":"JavaScript"},{"name":"framework","value":"Playwright"},{"name":"subSuite","value":"user endpoints"},{"name":"host","value":"runnervm0kj6c"},{"name":"thread","value":"runnervm0kj6c-2786-playwright-worker-0"},{"name":"resultFormat","value":"allure2"}],"parameters":[],"links":[],"hidden":false,"retry":false,"extra":{"severity":"normal","retries":[{"uid":"274e5a673819cb05","status":"passed","time":{"start":1683305691564,"stop":1683305692003,"duration":439}},{"uid":"4516208917edfb5d","status":"passed","time":{"start":1683305438353,"stop":1683305438754,"duration":401}}],"categories":[{"name":"Product defects","matchedStatuses":[],"flaky":false}],"history":{"statistic":{"failed":2,"broken":0,"skipped":0,"passed":0,"unknown":0,"total":2},"items":[{"uid":"ba20e7365ec668a4","reportUrl":"https://anilmadala.github.io/playwrightAPIAutomationSuite/1/#testresult/ba20e7365ec668a4","status":"failed","statusDetails":"expect(received).toMatchJSON(expected)\n\n- Expected  - 2\n+ Received  + 2\n\n@@ -44,11 +44,11 @@\n      },\n    ],\n    \"page\": 2,\n    \"per_page\": 6,\n    \"support\": Object {\n-     \"text\": \"To keep ReqRes free, contributions towards server costs are appreciated!\",\n-     \"url\": \"https://reqres.in/#support-heading\",\n+     \"text\": \"Tired of writing endless social media content? Let Content Caddy generate it for you.\",\n+     \"url\": \"https://contentcaddy.io?utm_source=reqres&utm_medium=json&utm_campaign=referral\",\n    },\n    \"total\": 12,\n    \"total_pages\": 2,\n  }","time":{"start":1756137379567,"stop":1756137380054,"duration":487}}]},"tags":[]},"source":"31e6693666890f9.json","parameterValues":[]}